{
    "aceId": 257,
    "aceInstance": "dgx1v.16g.1.norm",
    "aceName": "nv-us-west-2",
    "name": "ml-model.qsh.16g.1_debug",
    "publishedContainerPorts": [
        9999,
        8888
    ],
    "dockerImageName": "nvidian/lpr-imagine/imaginaire_qsh:1.1",
    "command": "cd /mnt/qsh_ws;tmux new-session -d -s dv \"nvitop\"; sleep 7d",
    "minAvailability": 1,
    "replicaCount": 1,
    "arrayType": "PYTORCH",
    "runPolicy": {
        "totalRuntimeSeconds": 604800,
        "preemptClass": "RUNONCE"
    },
    "resultContainerMountPoint": "/result",
    "workspaceMounts": [
        {
            "containerMountPoint": "/mnt/qsh_ws",
            "id": "qsh_ws",
            "mountMode": "RW"
        },
        {
            "containerMountPoint": "/mnt/qsh_keys",
            "id": "qsh_keys",
            "mountMode": "RW"
        }
    ]
}